% Dynare file to simulate large household model
% with the constraint always binding
% open economy version

%NB for steady-state to exist here, rwedge<1 must hold

var C H N b B;
var W Q r;
var lambda;

varexo epsw;

parameters betta nu omega;
parameters chi theta rwedge;
parameters sigmaw rhow;

@#include "largehh_parameters.m"

%shorthand notation:

model;

%borrower BC
exp(Q+H) = b + chi*(exp(W+N)+exp(Q+H(-1))+B-(1+r(-1))*B(-1));
%aggregate BC
exp(C) = exp(W+N)+B-(1+r(-1))*B(-1);
%borrowing constraint
chi*B+b = theta*exp(Q+H);
%borrower FOC for housing:
exp(Q-C)*(1+(1-theta)*lambda) = exp(-H) + betta*exp(Q(+1)-C(+1))*(1+chi*lambda(+1));
%lender FOC for loans:
exp(-C) = betta*(1+r)*exp(-C(+1))*(1+chi*lambda(+1));
%labor FOC:
omega*exp(nu*N)=exp(W-C)*(1+chi*lambda);

%labor demand
W=rhow*W(-1)+sigmaw*epsw;
%housing supply
H=0;
%aggregate loan supply
r=rwedge/betta-1;

end;

steady_state_model;

%exogenous
W=0;
H=0;
r=rwedge/betta-1;

%shorthand notation:
k1=1-betta+(1-rwedge)/rwedge*((1-theta)/chi-betta);
k2=(chi*k1-(1-chi-theta))/(chi*(r+1)*k1-r*(1-chi-theta));

%endogenous:
C=W - 1/(nu+1)*log(omega*rwedge) + nu/(nu+1)*log( 1-r*k2 );
N=1/nu*(W-C-log(omega*rwedge));
B=k2*exp(W+N);
Q=C-H-log(k1);
lambda=(1-rwedge)/(chi*rwedge);
b=theta*exp(Q+H)-chi*B;

end;


shocks;
var epsw; stderr 1;
end;

steady;
check;

%stoch_simul(order=1,irf=20,nocorr,ar=0);
stoch_simul(order=1,irf=100,nomoments,nograph);
cleanup_dyn(M_.fname);
