% Dynare file to simulate large household model
% with the constraint always binding
% closed economy version
% housing production subject to adjustment cost
% with learning

var C H N b B;
var W Q r;
var lambda;
var disttoconstraint;
var dH Pi Hs;

varexo epsw;

parameters betta nu omega phi;
parameters chi theta;
parameters sigmaw rhow;
parameters psi deltaH;

%additional learning:
var mu, lagv, auxv;
varexo v, v1;
parameters g, sigmav;

@#include "largehh_parameters.m"

%shorthand notation:

model;

%borrower BC
exp(Q+H) = b + chi*(exp(W+N)+(1-deltaH)*exp(Q+H(-1))+B-(1+r(-1))*B(-1)+Pi);
%aggregate BC
exp(C)+exp(Q)*(exp(H)-(1-deltaH)*exp(H(-1))) = exp(W+N)+B-(1+r(-1))*B(-1)+Pi;
%borrowing constraint
chi*B+b = theta*exp(Q+H);
disttoconstraint=0;
%borrower FOC for housing:
exp(Q-phi*C)*(1+(1-theta)*lambda) = exp(-H) + betta*(1-deltaH)*exp(Q(+1))*exp(-phi*C(+1))*(1+chi*lambda(+1));
%lender FOC for loans:
exp(-phi*C) = betta*(1+r)*exp(-phi*C(+1))*(1+chi*lambda(+1));
%labor FOC:
omega*exp(nu*N)=exp(W-phi*C)*(1+chi*lambda);

%labor demand
W=rhow*W(-1)+sigmaw*epsw;
%housing supply
exp(Hs)=exp(dH)+(1-deltaH)*exp(H(-1));
exp(Q)=1+psi*(exp(dH-H(-1))-deltaH);
Pi=exp(Q+Hs)-exp(dH)-(1-deltaH)*exp(Q+H(-1))-psi/2*(exp(dH-H(-1))-deltaH)^2;
%house market clearing
%H=Hs;
%aggregate loan supply
B=0;

%learning
Q=Q(-1)+mu(-1)+sigmav*v-0.5*(sigmav*auxv(+1))^2; 
mu=mu(-1)+g*(sigmav*v1-0.5*(sigmav*auxv(+1))^2);
auxv=v;
lagv=auxv(-1);

end;

shocks;
var epsw; stderr 1;
end;

%load steady state from RE (compute it first!!)
load largehh_closed_Hprod_SS;
oo_.steady_state(1:length(ys_RE))=ys_RE;

%stoch_simul(order=1,irf=20,nocorr,ar=0);
stoch_simul(order=1,irf=100,nomoments,nograph);
cleanup_dyn(M_.fname);

