\relax 
\newlabel{EQ1}{{1}{1}}
\newlabel{EQ3}{{2}{1}}
\newlabel{EQ4}{{3}{1}}
\newlabel{EQ5}{{4}{1}}
\newlabel{EQ6}{{5}{2}}
\newlabel{EQ7}{{6}{2}}
\newlabel{EQ8}{{7}{2}}
\newlabel{EQ9}{{8}{2}}
\newlabel{EQ10}{{9}{2}}
\newlabel{EQ11}{{10}{2}}
\newlabel{EQ12}{{11}{2}}
\newlabel{EQ13}{{12}{2}}
\newlabel{EQ14}{{13}{3}}
\newlabel{EQ15}{{14}{3}}
\newlabel{EQ16}{{15}{3}}
\newlabel{EQ17}{{16}{3}}
\newlabel{EQ18}{{17}{3}}
\newlabel{EQ19}{{18}{3}}
\newlabel{EQ20}{{19}{3}}
\newlabel{SSF}{{37}{5}}
\newlabel{Hevol}{{39}{5}}
\newlabel{QH_ext}{{40}{5}}
\newlabel{Hevol}{{41}{5}}
\newlabel{QH_int}{{42}{5}}
\newlabel{EQ37}{{43}{6}}
\newlabel{fgmV}{{44}{6}}
\newlabel{EQ39}{{45}{6}}
\newlabel{EQ41}{{47}{6}}
\newlabel{EQ42}{{48}{6}}
\newlabel{EQ43}{{49}{6}}
\newlabel{EQ44}{{50}{7}}
\newlabel{EQ46}{{51}{7}}
\newlabel{EQ48}{{52}{7}}
\newlabel{EQ48}{{53}{7}}
